Practical 9. Markov models — SOLUTIONS | Bayesian methods in health economics
…
# Visualise the data
msmdata

## # A tibble: 1,868 × 9
##       id  from    to trans Tstart Tstop     time status treat
##    <int> <dbl> <dbl> <dbl>  <dbl> <dbl>    <dbl>  <dbl> <int>
##  1     1     1     2     1    0   32.0  32.0          1     1
##  2     1     1     3     2    0   32    32            0     1
##  3     1     2     3     3   32.0 32     0.00920      0     1
##  4     2     1     2     1    0   30.6  30.6          1     1
##  5     2     1     3     2    0   30.6  30.6          0     1
##  6     2     2     3     3   30.6 30.6   0.0476       0     1
##  7     3     1     2     1    0   27.9  27.9          1     1
##  8     3     1     3     2    0   28    28            0     1
##  9     3     2     3     3   27.9 28     0.0944       0     1
## 10     4     1     2     1    0    2.88  2.88         1     0
## # … with 1,858 more rows
…
# Then run the Markov model using the specialised function 'three_state_mm'
mm=three_state_mm(
  m_12,m_13,m_23,         # these are the three objects containing the parameters estimates
  t=seq(0,130),           # specifies that the Markov model needs to be run for discrete times from 0 to 130 (months)
  nsim=1,                 # only uses 1 simulation from the distribution of the model parameters (the mean)
  start=c(1000,0,0)       # initial population: 1000 in pre-progression, 0 in progressed and 0 in death
)

We can visualise the resulting object

mm

## $m
## # A tibble: 260 × 11
##    treat     t `Pre-progressed` Progressed Death sim_idx lambda_11 lambda_12
##    <int> <int>            <dbl>      <dbl> <dbl>   <int>     <dbl>     <dbl>
##  1     1     1            1000        0     0          1     0.993   0.00506
##  2     1     2             993.       5.06  1.67       1     0.993   0.00527
##  3     1     3             986.      10.2   3.45       1     0.993   0.00550
##  4     1     4             979.      15.4   5.33       1     0.993   0.00574
##  5     1     5             972.      20.7   7.32       1     0.992   0.00599
##  6     1     6             964.      26.1   9.43       1     0.992   0.00625
##  7     1     7             957.      31.6  11.7        1     0.992   0.00652
##  8     1     8             949.      37.2  14.0        1     0.991   0.00680
##  9     1     9             941.      42.8  16.5        1     0.991   0.00710
## 10     1    10             932.      48.6  19.1        1     0.991   0.00740
## # … with 250 more rows, and 3 more variables: lambda_13 <dbl>, lambda_22 <dbl>,
## #   lambda_23 <dbl>
## 
## $running_time
## Time difference of 0.121031 secs
## 
## $base_case
## NULL
…
